[api-updater (non-obsolete-error-filter)] 10/29/2021 8:45:54 AM : Starting /Applications/Unity/Hub/Editor/2020.3.15f1/Unity.app/Contents/Tools/ScriptUpdater/APIUpdater.NonObsoleteApiUpdaterDetector.exe
[api-updater (non-obsolete-error-filter)] 
----------------------------------
jit/startup time      : 112.755ms
moved types parse time: 42ms
candidates parse time : 1ms
C# parse time         : 232ms
candidates check time : 25ms
console write time    : 0ms

[api-updater (non-obsolete-error-filter)] 10/29/2021 8:47:09 AM : Starting /Applications/Unity/Hub/Editor/2020.3.15f1/Unity.app/Contents/Tools/ScriptUpdater/APIUpdater.NonObsoleteApiUpdaterDetector.exe
[api-updater (non-obsolete-error-filter)] 
----------------------------------
jit/startup time      : 45.306ms
moved types parse time: 41ms
candidates parse time : 1ms
C# parse time         : 174ms
candidates check time : 22ms
console write time    : 0ms

[api-updater (non-obsolete-error-filter)] 10/29/2021 8:50:47 AM : Starting /Applications/Unity/Hub/Editor/2020.3.15f1/Unity.app/Contents/Tools/ScriptUpdater/APIUpdater.NonObsoleteApiUpdaterDetector.exe
[api-updater (non-obsolete-error-filter)] 
----------------------------------
jit/startup time      : 45.396ms
moved types parse time: 47ms
candidates parse time : 1ms
C# parse time         : 184ms
candidates check time : 28ms
console write time    : 0ms

[api-updater (non-obsolete-error-filter)] 10/29/2021 8:59:31 AM : Starting /Applications/Unity/Hub/Editor/2020.3.15f1/Unity.app/Contents/Tools/ScriptUpdater/APIUpdater.NonObsoleteApiUpdaterDetector.exe
[api-updater (non-obsolete-error-filter)] 
----------------------------------
jit/startup time      : 50.902ms
moved types parse time: 40ms
candidates parse time : 1ms
C# parse time         : 163ms
candidates check time : 23ms
console write time    : 0ms

[api-updater (non-obsolete-error-filter)] 10/29/2021 9:10:38 AM : Starting /Applications/Unity/Hub/Editor/2020.3.15f1/Unity.app/Contents/Tools/ScriptUpdater/APIUpdater.NonObsoleteApiUpdaterDetector.exe
[api-updater (non-obsolete-error-filter)] 
----------------------------------
jit/startup time      : 45.599ms
moved types parse time: 47ms
candidates parse time : 1ms
C# parse time         : 200ms
candidates check time : 29ms
console write time    : 0ms

[api-updater (non-obsolete-error-filter)] 10/29/2021 10:12:03 AM : Starting /Applications/Unity/Hub/Editor/2020.3.15f1/Unity.app/Contents/Tools/ScriptUpdater/APIUpdater.NonObsoleteApiUpdaterDetector.exe
[api-updater (non-obsolete-error-filter)] 
----------------------------------
jit/startup time      : 79.355ms
moved types parse time: 41ms
candidates parse time : 1ms
C# parse time         : 196ms
candidates check time : 43ms
console write time    : 0ms

[api-updater (non-obsolete-error-filter)] 11/1/2021 4:00:29 PM : Starting /Applications/Unity/Hub/Editor/2020.3.15f1/Unity.app/Contents/Tools/ScriptUpdater/APIUpdater.NonObsoleteApiUpdaterDetector.exe
[api-updater (non-obsolete-error-filter)] 
----------------------------------
jit/startup time      : 123.654ms
moved types parse time: 48ms
candidates parse time : 1ms
C# parse time         : 249ms
candidates check time : 27ms
console write time    : 0ms

[api-updater (non-obsolete-error-filter)] 11/1/2021 4:00:39 PM : Starting /Applications/Unity/Hub/Editor/2020.3.15f1/Unity.app/Contents/Tools/ScriptUpdater/APIUpdater.NonObsoleteApiUpdaterDetector.exe
[api-updater (non-obsolete-error-filter)] 
----------------------------------
jit/startup time      : 39.454ms
moved types parse time: 38ms
candidates parse time : 0ms
C# parse time         : 181ms
candidates check time : 25ms
console write time    : 0ms

[api-updater (non-obsolete-error-filter)] 11/1/2021 4:00:51 PM : Starting /Applications/Unity/Hub/Editor/2020.3.15f1/Unity.app/Contents/Tools/ScriptUpdater/APIUpdater.NonObsoleteApiUpdaterDetector.exe
[api-updater (non-obsolete-error-filter)] 
----------------------------------
jit/startup time      : 55.009ms
moved types parse time: 38ms
candidates parse time : 0ms
C# parse time         : 175ms
candidates check time : 24ms
console write time    : 0ms

[api-updater (non-obsolete-error-filter)] 11/2/2021 8:39:25 AM : Starting /Applications/Unity/Hub/Editor/2020.3.15f1/Unity.app/Contents/Tools/ScriptUpdater/APIUpdater.NonObsoleteApiUpdaterDetector.exe
[api-updater (non-obsolete-error-filter)] Exception caught while loading types from /Users/akruetzfeldt/git/v1/Librarian/Library/ScriptAssemblies/Unity.TextMeshPro.Editor.dll (some types may not be loaded)
	Exception of type 'System.Reflection.ReflectionTypeLoadException' was thrown.
	  at (wrapper managed-to-native) System.Reflection.Assembly.GetTypes(System.Reflection.Assembly,bool)
  at System.Reflection.Assembly.GetTypes () [0x00000] in <695d1cc93cca45069c528c15c9fdd749>:0 
  at APIUpdater.NonObsoleteApiUpdaterDetector.ExtraInfoParser+<LoadTypesWithMovedFromAttributeAsync>d__3.MoveNext () [0x000c8] in <6358200448ef46218e7be4a1b6be469f>:0 
	Could not load file or assembly 'UnityEditor.CoreModule, Version=0.0.0.0, Culture=neutral, PublicKeyToken=null' or one of its dependencies.

[api-updater (non-obsolete-error-filter)] 
----------------------------------
jit/startup time      : 112.247ms
moved types parse time: 43ms
candidates parse time : 1ms
C# parse time         : 231ms
candidates check time : 25ms
console write time    : 0ms

[api-updater (non-obsolete-error-filter)] 11/3/2021 9:14:01 AM : Starting /Applications/Unity/Hub/Editor/2020.3.15f1/Unity.app/Contents/Tools/ScriptUpdater/APIUpdater.NonObsoleteApiUpdaterDetector.exe
[api-updater (non-obsolete-error-filter)] 
----------------------------------
jit/startup time      : 64.463ms
moved types parse time: 42ms
candidates parse time : 1ms
C# parse time         : 243ms
candidates check time : 39ms
console write time    : 0ms

[api-updater (non-obsolete-error-filter)] 11/9/2021 2:54:39 PM : Starting /Applications/Unity/Hub/Editor/2020.3.15f1/Unity.app/Contents/Tools/ScriptUpdater/APIUpdater.NonObsoleteApiUpdaterDetector.exe
[api-updater (non-obsolete-error-filter)] 
----------------------------------
jit/startup time      : 125.031ms
moved types parse time: 49ms
candidates parse time : 1ms
C# parse time         : 256ms
candidates check time : 42ms
console write time    : 0ms

[api-updater (non-obsolete-error-filter)] 11/9/2021 2:55:41 PM : Starting /Applications/Unity/Hub/Editor/2020.3.15f1/Unity.app/Contents/Tools/ScriptUpdater/APIUpdater.NonObsoleteApiUpdaterDetector.exe
[api-updater (non-obsolete-error-filter)] 
----------------------------------
jit/startup time      : 45.554ms
moved types parse time: 41ms
candidates parse time : 0ms
C# parse time         : 228ms
candidates check time : 46ms
console write time    : 0ms

[api-updater (non-obsolete-error-filter)] 11/10/2021 3:04:21 PM : Starting /Applications/Unity/Hub/Editor/2020.3.15f1/Unity.app/Contents/Tools/ScriptUpdater/APIUpdater.NonObsoleteApiUpdaterDetector.exe
[api-updater (non-obsolete-error-filter)] 
----------------------------------
jit/startup time      : 131.522ms
moved types parse time: 51ms
candidates parse time : 1ms
C# parse time         : 277ms
candidates check time : 44ms
console write time    : 0ms

[api-updater (non-obsolete-error-filter)] 11/10/2021 3:04:34 PM : Starting /Applications/Unity/Hub/Editor/2020.3.15f1/Unity.app/Contents/Tools/ScriptUpdater/APIUpdater.NonObsoleteApiUpdaterDetector.exe
[api-updater (non-obsolete-error-filter)] 
----------------------------------
jit/startup time      : 43.081ms
moved types parse time: 44ms
candidates parse time : 0ms
C# parse time         : 228ms
candidates check time : 42ms
console write time    : 0ms

[api-updater (non-obsolete-error-filter)] 11/10/2021 3:05:28 PM : Starting /Applications/Unity/Hub/Editor/2020.3.15f1/Unity.app/Contents/Tools/ScriptUpdater/APIUpdater.NonObsoleteApiUpdaterDetector.exe
[api-updater (non-obsolete-error-filter)] 
----------------------------------
jit/startup time      : 54.722ms
moved types parse time: 47ms
candidates parse time : 1ms
C# parse time         : 220ms
candidates check time : 40ms
console write time    : 0ms

[api-updater (non-obsolete-error-filter)] 11/10/2021 3:11:04 PM : Starting /Applications/Unity/Hub/Editor/2020.3.15f1/Unity.app/Contents/Tools/ScriptUpdater/APIUpdater.NonObsoleteApiUpdaterDetector.exe
[api-updater (non-obsolete-error-filter)] 
----------------------------------
jit/startup time      : 57.517ms
moved types parse time: 40ms
candidates parse time : 2ms
C# parse time         : 209ms
candidates check time : 33ms
console write time    : 0ms

[api-updater (non-obsolete-error-filter)] 11/12/2021 12:13:38 PM : Starting /Applications/Unity/Hub/Editor/2020.3.15f1/Unity.app/Contents/Tools/ScriptUpdater/APIUpdater.NonObsoleteApiUpdaterDetector.exe
[api-updater (non-obsolete-error-filter)] 
----------------------------------
jit/startup time      : 127.036ms
moved types parse time: 45ms
candidates parse time : 1ms
C# parse time         : 262ms
candidates check time : 31ms
console write time    : 1ms

[api-updater (non-obsolete-error-filter)] 11/15/2021 10:36:17 AM : Starting /Applications/Unity/Hub/Editor/2020.3.15f1/Unity.app/Contents/Tools/ScriptUpdater/APIUpdater.NonObsoleteApiUpdaterDetector.exe
[api-updater (non-obsolete-error-filter)] 
----------------------------------
jit/startup time      : 132.573ms
moved types parse time: 53ms
candidates parse time : 1ms
C# parse time         : 261ms
candidates check time : 39ms
console write time    : 0ms

[api-updater (non-obsolete-error-filter)] 11/16/2021 8:43:32 AM : Starting /Applications/Unity/Hub/Editor/2020.3.15f1/Unity.app/Contents/Tools/ScriptUpdater/APIUpdater.NonObsoleteApiUpdaterDetector.exe
[api-updater (non-obsolete-error-filter)] 
----------------------------------
jit/startup time      : 115.598ms
moved types parse time: 42ms
candidates parse time : 1ms
C# parse time         : 241ms
candidates check time : 47ms
console write time    : 0ms

