%YAML 1.1
%TAG !u! tag:unity3d.com,2011:
--- !u!21 &2100000
Material:
  serializedVersion: 6
  m_ObjectHideFlags: 0
  m_CorrespondingSourceObject: {fileID: 0}
  m_PrefabInstance: {fileID: 0}
  m_PrefabAsset: {fileID: 0}
  m_Name: CH47_HorizontalTile_01_FADE
  m_Shader: {fileID: 4800000, guid: 1e508d16837e4d24384892dfe2ab28d3, type: 3}
  m_ShaderKeywords: ECS_DETAILMAP2 ECS_DETAIL_UV2 ECS_DIFFUSEMAP ECS_INDIRECTSPECULAR_PROBE
    ECS_NORMALMAP ECS_SURFACEMAP ECS_VERTEX_A_DETAILMASK
  m_LightmapFlags: 0
  m_EnableInstancingVariants: 0
  m_DoubleSidedGI: 0
  m_CustomRenderQueue: 2999
  stringTagMap: {}
  disabledShaderPasses: []
  m_SavedProperties:
    serializedVersion: 3
    m_TexEnvs:
    - _BumpMap:
        m_Texture: {fileID: 2800000, guid: f8586014eab466b4db759e4f6a517ca4, type: 3}
        m_Scale: {x: 1, y: 1}
        m_Offset: {x: 0, y: 0}
    - _CutoffFalloffRamp:
        m_Texture: {fileID: 0}
        m_Scale: {x: 1, y: 1}
        m_Offset: {x: 0, y: 0}
    - _Detail2Map:
        m_Texture: {fileID: 2800000, guid: ce766609c37fab44b8dda54c08e88b0a, type: 3}
        m_Scale: {x: 1, y: 1}
        m_Offset: {x: 0, y: 0}
    - _DetailAlbedoMap:
        m_Texture: {fileID: 0}
        m_Scale: {x: 1, y: 1}
        m_Offset: {x: 0, y: 0}
    - _DetailBumpMap:
        m_Texture: {fileID: 0}
        m_Scale: {x: 1, y: 1}
        m_Offset: {x: 0, y: 0}
    - _DetailMap:
        m_Texture: {fileID: 2800000, guid: 0a912b8178c1f8b40ba447f868fab002, type: 3}
        m_Scale: {x: 1, y: 1}
        m_Offset: {x: 0, y: 0}
    - _DetailMask:
        m_Texture: {fileID: 0}
        m_Scale: {x: 1, y: 1}
        m_Offset: {x: 0, y: 0}
    - _DetailMaskMap:
        m_Texture: {fileID: 0}
        m_Scale: {x: 1, y: 1}
        m_Offset: {x: 0, y: 0}
    - _DetailNormalMap:
        m_Texture: {fileID: 0}
        m_Scale: {x: 1, y: 1}
        m_Offset: {x: 0, y: 0}
    - _DirLightingMap:
        m_Texture: {fileID: 0}
        m_Scale: {x: 1, y: 1}
        m_Offset: {x: 0, y: 0}
    - _EmissionMap:
        m_Texture: {fileID: 0}
        m_Scale: {x: 1, y: 1}
        m_Offset: {x: 0, y: 0}
    - _HighlightRamp:
        m_Texture: {fileID: 0}
        m_Scale: {x: 1, y: 1}
        m_Offset: {x: 0, y: 0}
    - _IndirectSpecularCube:
        m_Texture: {fileID: 0}
        m_Scale: {x: 1, y: 1}
        m_Offset: {x: 0, y: 0}
    - _LightingMap:
        m_Texture: {fileID: 0}
        m_Scale: {x: 1, y: 1}
        m_Offset: {x: 0, y: 0}
    - _MainTex:
        m_Texture: {fileID: 2800000, guid: 529e4cb3b68e05a4abdfe2ac61b386b9, type: 3}
        m_Scale: {x: 1, y: 1}
        m_Offset: {x: 0, y: 0}
    - _MetallicGlossMap:
        m_Texture: {fileID: 0}
        m_Scale: {x: 1, y: 1}
        m_Offset: {x: 0, y: 0}
    - _OcclusionMap:
        m_Texture: {fileID: 0}
        m_Scale: {x: 1, y: 1}
        m_Offset: {x: 0, y: 0}
    - _ParallaxMap:
        m_Texture: {fileID: 0}
        m_Scale: {x: 1, y: 1}
        m_Offset: {x: 0, y: 0}
    - _PlanarReflection:
        m_Texture: {fileID: 0}
        m_Scale: {x: 1, y: 1}
        m_Offset: {x: 0, y: 0}
    - _SurfaceMap:
        m_Texture: {fileID: 2800000, guid: 4efdc46e026a9264ca3a373ff46fcf47, type: 3}
        m_Scale: {x: 1, y: 1}
        m_Offset: {x: 0, y: 0}
    m_Floats:
    - _BumpScale: 1
    - _BumpStrength: 0.68
    - _CullMode: 2
    - _Cutoff: 1
    - _Detail2RoughnessStrength: 1
    - _Detail2Strength: 1
    - _Detail2Tiling: 1
    - _DetailBumpStrength: 1
    - _DetailNormalMapScale: 1
    - _DetailRoughnessStrength: 0.35
    - _DetailStrength: 5
    - _DetailTiling: 5
    - _DetailUV2: 1
    - _DirectLighting: 0
    - _DstBlend: 0
    - _EmissionStrength: 0
    - _GlossMapScale: 1
    - _Glossiness: 0
    - _GlossyReflections: 1
    - _IndirectDiffuseMode: 0
    - _IndirectSpecularMode: 3
    - _Metallic: 0
    - _Metalness: 0
    - _Mode: 0
    - _OcclusionStrength: 1
    - _Parallax: 0.02
    - _RenderMode: 3
    - _RenderQueue: 2999
    - _Roughness: 0.5
    - _SmoothnessTextureChannel: 0
    - _SpecularHighlights: 1
    - _SrcBlend: 1
    - _UVSec: 0
    - _VertexAMode: 3
    - _VertexRGBMode: 0
    - _ZTest: 4
    - _ZWrite: 0
    m_Colors:
    - _BackfaceColor: {r: 0, g: 0, b: 0, a: 1}
    - _Color: {r: 1, g: 1, b: 1, a: 1}
    - _EmissionColor: {r: 0, g: 0, b: 0, a: 0}
    - _HighlightColor: {r: 0, g: 0, b: 0, a: 0}
    - _IndirectDiffuseColor: {r: 1, g: 1, b: 1, a: 1}
    - _OcclusionStrength: {r: 0.5, g: 0.25, b: 1, a: 4}
    - _UV1: {r: 1, g: 0, b: 0, a: 0}
